{
  "pullrequest": {
    "rendered": {
      "description": {
        "raw": "### This is my pull request ###\r\n\r\nThis is a **bold** test\r\n\r\nThis is a *Italic* test test\r\n\r\nThis is a [link](https://bitbucket.org/enterprise/repo-name/pull-requests/new) test\r\n\r\nThis an image test![Screenshot from 2021-01-16 11-50-36.png](https://bitbucket.org/repo/65nzddR/images/1301651365-Screenshot%20from%202021-01-16%2011-50-36.png)",
        "markup": "markdown",
        "html": "<h3 id=\"markdown-header-this-is-my-pull-request\">This is my pull request</h3>\n<p>This is a <strong>bold</strong> test</p>\n<p>This is a <em>Italic</em> test test</p>\n<p>This is a <a data-is-external-link=\"true\" href=\"https://bitbucket.org/enterprise/repo-name/pull-requests/new\" rel=\"nofollow\">link</a> test</p>\n<p>This an image test<img alt=\"Screenshot from 2021-01-16 11-50-36.png\" src=\"https://bitbucket.org/repo/65nzddR/images/1301651365-Screenshot%20from%202021-01-16%2011-50-36.png\" /></p>",
        "type": "rendered"
      },
      "title": {
        "raw": "BS-123 Title of my pull request",
        "markup": "markdown",
        "html": "<pre class=\"plaintext\">BS-123 Title of my pull request</pre>",
        "type": "rendered"
      }
    },
    "type": "pullrequest",
    "description": "### This is my pull request ###\r\n\r\nThis is a **bold** test\r\n\r\nThis is a *Italic* test test\r\n\r\nThis is a [link](https://bitbucket.org/enterprise/repo-name/pull-requests/new) test\r\n\r\nThis an image test![Screenshot from 2021-01-16 11-50-36.png](https://bitbucket.org/repo/65nzddR/images/1301651365-Screenshot%20from%202021-01-16%2011-50-36.png)",
    "links": {
      "decline": {
        "href": "https://api.bitbucket.org/2.0/repositories/enterprise/repo-name/pullrequests/1/decline"
      },
      "diffstat": {
        "href": "https://api.bitbucket.org/2.0/repositories/enterprise/repo-name/diffstat/enterprise/repo-name:de322e6b0d25%0Dc5ae080da037?from_pullrequest_id=1"
      },
      "commits": {
        "href": "https://api.bitbucket.org/2.0/repositories/enterprise/repo-name/pullrequests/1/commits"
      },
      "self": {
        "href": "https://api.bitbucket.org/2.0/repositories/enterprise/repo-name/pullrequests/1"
      },
      "comments": {
        "href": "https://api.bitbucket.org/2.0/repositories/enterprise/repo-name/pullrequests/1/comments"
      },
      "merge": {
        "href": "https://api.bitbucket.org/2.0/repositories/enterprise/repo-name/pullrequests/1/merge"
      },
      "html": {
        "href": "https://bitbucket.org/enterprise/repo-name/pull-requests/1"
      },
      "activity": {
        "href": "https://api.bitbucket.org/2.0/repositories/enterprise/repo-name/pullrequests/1/activity"
      },
      "request-changes": {
        "href": "https://api.bitbucket.org/2.0/repositories/enterprise/repo-name/pullrequests/1/request-changes"
      },
      "diff": {
        "href": "https://api.bitbucket.org/2.0/repositories/enterprise/repo-name/diff/enterprise/repo-name:de322e6b0d25%0Dc5ae080da037?from_pullrequest_id=1"
      },
      "approve": {
        "href": "https://api.bitbucket.org/2.0/repositories/enterprise/repo-name/pullrequests/1/approve"
      },
      "statuses": {
        "href": "https://api.bitbucket.org/2.0/repositories/enterprise/repo-name/pullrequests/1/statuses"
      }
    },
    "title": "BS-123 Title of my pull request",
    "close_source_branch": true,
    "reviewers": [],
    "id": 1,
    "destination": {
      "commit": {
        "hash": "c5ae080da037",
        "type": "commit",
        "links": {
          "self": {
            "href": "https://api.bitbucket.org/2.0/repositories/enterprise/repo-name/commit/c5ae080da037"
          },
          "html": {
            "href": "https://bitbucket.org/enterprise/repo-name/commits/c5ae080da037"
          }
        }
      },
      "repository": {
        "links": {
          "self": {
            "href": "https://api.bitbucket.org/2.0/repositories/enterprise/repo-name"
          },
          "html": {
            "href": "https://bitbucket.org/enterprise/repo-name"
          },
          "avatar": {
            "href": "https://bytebucket.org/ravatar/%7B0fa17320-0870-4d56-9b69-f853a0c6d7d9%7D?ts=php"
          }
        },
        "type": "repository",
        "name": "repo-name",
        "full_name": "enterprise/repo-name",
        "uuid": "{0fa17320-0870-4d56-9b69-f853a0c6d7d9}"
      },
      "branch": {
        "name": "master"
      }
    },
    "created_on": "2021-01-16T10:51:21.765693+00:00",
    "summary": {
      "raw": "### This is my pull request ###\r\n\r\nThis is a **bold** test\r\n\r\nThis is a *Italic* test test\r\n\r\nThis is a [link](https://bitbucket.org/enterprise/repo-name/pull-requests/new) test\r\n\r\nThis an image test![Screenshot from 2021-01-16 11-50-36.png](https://bitbucket.org/repo/65nzddR/images/1301651365-Screenshot%20from%202021-01-16%2011-50-36.png)",
      "markup": "markdown",
      "html": "<h3 id=\"markdown-header-this-is-my-pull-request\">This is my pull request</h3>\n<p>This is a <strong>bold</strong> test</p>\n<p>This is a <em>Italic</em> test test</p>\n<p>This is a <a data-is-external-link=\"true\" href=\"https://bitbucket.org/enterprise/repo-name/pull-requests/new\" rel=\"nofollow\">link</a> test</p>\n<p>This an image test<img alt=\"Screenshot from 2021-01-16 11-50-36.png\" src=\"https://bitbucket.org/repo/65nzddR/images/1301651365-Screenshot%20from%202021-01-16%2011-50-36.png\" /></p>",
      "type": "rendered"
    },
    "source": {
      "commit": {
        "hash": "de322e6b0d25",
        "type": "commit",
        "links": {
          "self": {
            "href": "https://api.bitbucket.org/2.0/repositories/enterprise/repo-name/commit/de322e6b0d25"
          },
          "html": {
            "href": "https://bitbucket.org/enterprise/repo-name/commits/de322e6b0d25"
          }
        }
      },
      "repository": {
        "links": {
          "self": {
            "href": "https://api.bitbucket.org/2.0/repositories/enterprise/repo-name"
          },
          "html": {
            "href": "https://bitbucket.org/enterprise/repo-name"
          },
          "avatar": {
            "href": "https://bytebucket.org/ravatar/%7B0fa17320-0870-4d56-9b69-f853a0c6d7d9%7D?ts=php"
          }
        },
        "type": "repository",
        "name": "repo-name",
        "full_name": "enterprise/repo-name",
        "uuid": "{0fa17320-0870-4d56-9b69-f853a0c6d7d9}"
      },
      "branch": {
        "name": "BS-123-branch-name"
      }
    },
    "comment_count": 0,
    "state": "OPEN",
    "task_count": 0,
    "participants": [],
    "reason": "",
    "updated_on": "2021-01-16T10:51:21.841543+00:00",
    "author": {
      "display_name": "Kevin Costeneur",
      "account_id": "5dcaaac15c4caa0df2e1c1eb",
      "links": {
        "self": {
          "href": "https://api.bitbucket.org/2.0/users/%7Bfd2c3ebc-113b-4d7a-894f-9be2052f710d%7D"
        },
        "html": {
          "href": "https://bitbucket.org/%7Bfd2c3ebc-113b-4d7a-894f-9be2052f710d%7D/"
        },
        "avatar": {
          "href": "https://avatar-management--avatars.us-west-2.prod.public.atl-paas.net/5dcaaac15c4caa0df2e1c1eb/d1064951-825f-4fd9-849f-8bbd227d5f74/128"
        }
      },
      "nickname": "Kevin",
      "type": "user",
      "uuid": "{fd2c3ebc-113b-4d7a-894f-9be2052f710d}"
    },
    "merge_commit": null,
    "closed_by": null
  },
  "repository": {
    "scm": "git",
    "website": null,
    "uuid": "{0fa17320-0870-4d56-9b69-f853a0c6d7d9}",
    "links": {
      "self": {
        "href": "https://api.bitbucket.org/2.0/repositories/enterprise/repo-name"
      },
      "html": {
        "href": "https://bitbucket.org/enterprise/repo-name"
      },
      "avatar": {
        "href": "https://bytebucket.org/ravatar/%7B0fa17320-0870-4d56-9b69-f853a0c6d7d9%7D?ts=php"
      }
    },
    "project": {
      "links": {
        "self": {
          "href": "https://api.bitbucket.org/2.0/workspaces/enterprise/projects/PROJ"
        },
        "html": {
          "href": "https://bitbucket.org/enterprise/workspace/projects/PROJ"
        },
        "avatar": {
          "href": "https://bitbucket.org/account/user/enterprise/projects/PROJ/avatar/32?ts=1610793956"
        }
      },
      "type": "project",
      "name": "project-name",
      "key": "PROJ",
      "uuid": "{13fe4150-2331-4690-af6c-6dabf56770c2}"
    },
    "full_name": "enterprise/repo-name",
    "owner": {
      "display_name": "Kevin Costeneur",
      "account_id": "5dcaaac15c4caa0df2e1c1eb",
      "links": {
        "self": {
          "href": "https://api.bitbucket.org/2.0/users/%7Bfd2c3ebc-113b-4d7a-894f-9be2052f710d%7D"
        },
        "html": {
          "href": "https://bitbucket.org/%7Bfd2c3ebc-113b-4d7a-894f-9be2052f710d%7D/"
        },
        "avatar": {
          "href": "https://avatar-management--avatars.us-west-2.prod.public.atl-paas.net/5dcaaac15c4caa0df2e1c1eb/d1064951-825f-4fd9-849f-8bbd227d5f74/128"
        }
      },
      "nickname": "Kevin",
      "type": "user",
      "uuid": "{fd2c3ebc-113b-4d7a-894f-9be2052f710d}"
    },
    "workspace": {
      "name": "Kevin",
      "type": "workspace",
      "uuid": "{fd2c3ebc-113b-4d7a-894f-9be2052f710d}",
      "links": {
        "self": {
          "href": "https://api.bitbucket.org/2.0/workspaces/enterprise"
        },
        "html": {
          "href": "https://bitbucket.org/enterprise/"
        },
        "avatar": {
          "href": "https://bitbucket.org/workspaces/enterprise/avatar/?ts=1583830300"
        }
      },
      "slug": "enterprise"
    },
    "type": "repository",
    "is_private": true,
    "name": "repo-name"
  },
  "actor": {
    "display_name": "Kevin Costeneur",
    "account_id": "5dcaaac15c4caa0df2e1c1eb",
    "links": {
      "self": {
        "href": "https://api.bitbucket.org/2.0/users/%7Bfd2c3ebc-113b-4d7a-894f-9be2052f710d%7D"
      },
      "html": {
        "href": "https://bitbucket.org/%7Bfd2c3ebc-113b-4d7a-894f-9be2052f710d%7D/"
      },
      "avatar": {
        "href": "https://avatar-management--avatars.us-west-2.prod.public.atl-paas.net/5dcaaac15c4caa0df2e1c1eb/d1064951-825f-4fd9-849f-8bbd227d5f74/128"
      }
    },
    "nickname": "Kevin",
    "type": "user",
    "uuid": "{fd2c3ebc-113b-4d7a-894f-9be2052f710d}"
  }
}