{
    "self": "https://repo.atlassian.net/rest/api/2/12275",
    "id": 12275,
    "key": "SUP-374",
    "changelog": {
        "startAt": 0,
        "maxResults": 0,
        "total": 0,
        "histories": null
    },
    "fields": {
        "statuscategorychangedate": null,
        "issuetype": {
            "self": "https://repo.atlassian.net/rest/api/2/issuetype/10007",
            "id": 10007,
            "description": "A problem or error.",
            "iconUrl": "https://repo.atlassian.net/secure/viewavatar?size=medium&avatarId=10303&avatarType=issuetype",
            "name": "Bug",
            "subtask": false,
            "fields": null,
            "statuses": [],
            "namedValue": "Bug"
        },
        "timespent": null,
        "customfield_10030": null,
        "customfield_10031": null,
        "project": {
            "self": "https://repo.atlassian.net/rest/api/2/project/10009",
            "id": 10009,
            "key": "SUP",
            "name": "Support",
            "description": null,
            "avatarUrls": {
                "48x48": "https://repo.atlassian.net/secure/projectavatar?pid=10009&avatarId=10422",
                "24x24": "https://repo.atlassian.net/secure/projectavatar?size=small&s=small&pid=10009&avatarId=10422",
                "16x16": "https://repo.atlassian.net/secure/projectavatar?size=xsmall&s=xsmall&pid=10009&avatarId=10422",
                "32x32": "https://repo.atlassian.net/secure/projectavatar?size=medium&s=medium&pid=10009&avatarId=10422"
            },
            "issuetypes": null,
            "projectCategory": null,
            "email": null,
            "lead": null,
            "components": null,
            "versions": null,
            "projectTypeKey": "service_desk",
            "simplified": false
        },
        "customfield_10032": null,
        "customfield_10033": null,
        "fixVersions": [],
        "aggregatetimespent": null,
        "customfield_10034": null,
        "customfield_10035": null,
        "resolution": null,
        "customfield_10036": null,
        "customfield_10037": null,
        "customfield_10027": null,
        "customfield_10028": [],
        "customfield_10029": null,
        "resolutiondate": null,
        "workratio": -1,
        "watches": {
            "self": "https://repo.atlassian.net/rest/api/2/issue/SUP-374/watchers",
            "watchCount": 0,
            "isWatching": false
        },
        "lastViewed": null,
        "issuerestriction": {
            "issuerestrictions": {},
            "shouldDisplay": false
        },
        "created": 1612476043075,
        "customfield_10020": null,
        "customfield_10021": null,
        "customfield_10022": null,
        "priority": {
            "self": "https://repo.atlassian.net/rest/api/2/priority/3",
            "id": 3,
            "name": "Medium",
            "iconUrl": "https://repo.atlassian.net/images/icons/priorities/medium.svg",
            "namedValue": "Medium"
        },
        "customfield_10023": null,
        "labels": [],
        "customfield_10016": null,
        "customfield_10017": null,
        "customfield_10018": {
            "hasEpicLinkFieldDependency": false,
            "showField": false,
            "nonEditableReason": {
                "reason": "PLUGIN_LICENSE_ERROR",
                "message": "Le lien parent est uniquement disponible pour les utilisateurs Jira Premium."
            }
        },
        "customfield_10019": "0|i00cgv:",
        "timeestimate": null,
        "aggregatetimeoriginalestimate": null,
        "versions": [],
        "issuelinks": [],
        "assignee": null,
        "updated": 1612476043075,
        "status": {
            "self": "https://repo.atlassian.net/rest/api/2/status/1",
            "description": null,
            "iconUrl": "https://repo.atlassian.net/images/icons/statuses/open.png",
            "name": "TO DO",
            "untranslatedName": null,
            "id": 1,
            "statusCategory": {
                "self": "https://repo.atlassian.net/rest/api/2/statuscategory/2",
                "id": 2,
                "key": "new",
                "colorName": "blue-gray",
                "name": "New"
            },
            "untranslatedNameValue": null
        },
        "components": [{
            "self": "https://repo.atlassian.net/rest/api/2/component/10028",
            "id": 10028,
            "name": "Factures",
            "description": null,
            "namedValue": "Factures"
        },{
            "self": "https://repo.atlassian.net/rest/api/2/component/12345",
            "id": 12345,
            "name": "Devis",
            "description": null,
            "namedValue": "Devis"
        }],
        "timeoriginalestimate": null,
        "description": "There is a bug in the app. There is a bug in the app. There is a bug in the app.",
        "customfield_10010": {
            "_links": {
                "web": "https://repo.atlassian.net/servicedesk/customer/portal/2/SUP-374",
                "self": "https://repo.atlassian.net/rest/servicedeskapi/request/12275",
                "agent": "https://repo.atlassian.net/browse/SUP-374"
            },
            "requestType": {
                "_expands": ["field"],
                "id": "27",
                "_links": {
                    "self": "https://repo.atlassian.net/rest/servicedeskapi/servicedesk/2/requesttype/27"
                },
                "name": "ProblÃ¨me Technique",
                "description": "Soumettre un ticket pour signaler un problÃ¨me.",
                "helpText": "",
                "issueTypeId": "10007",
                "serviceDeskId": "2",
                "groupIds": ["8", "11"],
                "icon": {
                    "id": "10476",
                    "_links": {
                        "iconUrls": {
                            "48x48": "https://repo.atlassian.net/secure/viewavatar?avatarType=SD_REQTYPE&avatarId=10476&size=large",
                            "24x24": "https://repo.atlassian.net/secure/viewavatar?avatarType=SD_REQTYPE&avatarId=10476&size=small",
                            "16x16": "https://repo.atlassian.net/secure/viewavatar?avatarType=SD_REQTYPE&avatarId=10476&size=xsmall",
                            "32x32": "https://repo.atlassian.net/secure/viewavatar?avatarType=SD_REQTYPE&avatarId=10476&size=medium"
                        }
                    }
                }
            },
            "currentStatus": {
                "status": "EnvoyÃ©",
                "statusCategory": "NEW",
                "statusDate": {
                    "iso8601": "2021-02-04T23:00:43+0100",
                    "jira": "2021-02-04T23:00:43.075+0100",
                    "friendly": "Aujourd'hui 11:00 PM",
                    "epochMillis": 1612476043075
                }
            }
        },
        "customfield_10014": null,
        "customfield_10015": null,
        "timetracking": {
            "originalEstimate": null,
            "remainingEstimate": null,
            "timeSpent": null,
            "originalEstimateSeconds": 0,
            "remainingEstimateSeconds": 0,
            "timeSpentSeconds": 0
        },
        "customfield_10049": null,
        "customfield_10005": null,
        "customfield_10006": null,
        "customfield_10007": null,
        "security": null,
        "customfield_10008": null,
        "aggregatetimeestimate": null,
        "customfield_10009": null,
        "attachment": [],
        "summary": "There is a bug in the app",
        "creator": {
            "self": "https://repo.atlassian.net/rest/api/2/user?accountId=qm%3Ad0b38ba2-9b47-40a2-8e03-21aeb098d61e%3A8f8a7a2a-8af7-4c3c-a642-906bf08a4d4c",
            "name": null,
            "key": null,
            "accountId": "qm:d0b38ba2-9b47-40a2-8e03-21aeb098d61e:8f8a7a2a-8af7-4c3c-a642-906bf08a4d4c",
            "emailAddress": null,
            "avatarUrls": {
                "48x48": "https://avatar-management--avatars.us-west-2.prod.public.atl-paas.net/default-avatar.png",
                "24x24": "https://avatar-management--avatars.us-west-2.prod.public.atl-paas.net/default-avatar.png",
                "16x16": "https://avatar-management--avatars.us-west-2.prod.public.atl-paas.net/default-avatar.png",
                "32x32": "https://avatar-management--avatars.us-west-2.prod.public.atl-paas.net/default-avatar.png"
            },
            "displayName": "customer@gmail.com",
            "active": true,
            "timeZone": "Europe/Paris",
            "groups": null,
            "locale": null,
            "accountType": "customer"
        },
        "subtasks": [],
        "customfield_10040": null,
        "customfield_10041": null,
        "customfield_10042": null,
        "customfield_10043": null,
        "reporter": {
            "self": "https://repo.atlassian.net/rest/api/2/user?accountId=qm%3Ad0b38ba2-9b47-40a2-8e03-21aeb098d61e%3A8f8a7a2a-8af7-4c3c-a642-906bf08a4d4c",
            "name": null,
            "key": null,
            "accountId": "qm:d0b38ba2-9b47-40a2-8e03-21aeb098d61e:8f8a7a2a-8af7-4c3c-a642-906bf08a4d4c",
            "emailAddress": null,
            "avatarUrls": {
                "48x48": "https://avatar-management--avatars.us-west-2.prod.public.atl-paas.net/default-avatar.png",
                "24x24": "https://avatar-management--avatars.us-west-2.prod.public.atl-paas.net/default-avatar.png",
                "16x16": "https://avatar-management--avatars.us-west-2.prod.public.atl-paas.net/default-avatar.png",
                "32x32": "https://avatar-management--avatars.us-west-2.prod.public.atl-paas.net/default-avatar.png"
            },
            "displayName": "customer@gmail.com",
            "active": true,
            "timeZone": "Europe/Paris",
            "groups": null,
            "locale": null,
            "accountType": "customer"
        },
        "aggregateprogress": {
            "progress": 0,
            "total": 0
        },
        "customfield_10044": null,
        "customfield_10000": "{}",
        "customfield_10001": null,
        "customfield_10045": null,
        "customfield_10002": [],
        "customfield_10046": null,
        "customfield_10047": null,
        "customfield_10003": null,
        "customfield_10048": null,
        "customfield_10004": null,
        "customfield_10038": null,
        "customfield_10039": null,
        "environment": null,
        "duedate": null,
        "progress": {
            "progress": 0,
            "total": 0
        }
    },
    "renderedFields": null
}